{"body": {"next_page": "https://api.pexels.com/v1/search/?page=3&per_page=5&query=red+flower", "prev_page": "https://api.pexels.com/v1/search/?page=1&per_page=5&query=red+flower", "total_results": 10629, "photos": [{"src": {"medium": "https://images.pexels.com/photos/60597/dahlia-red-blossom-bloom-60597.jpeg?auto=compress&cs=tinysrgb&h=350", "tiny": "https://images.pexels.com/photos/60597/dahlia-red-blossom-bloom-60597.jpeg?auto=compress&cs=tinysrgb&fit=crop&h=200&w=280", "large": "https://images.pexels.com/photos/60597/dahlia-red-blossom-bloom-60597.jpeg?auto=compress&cs=tinysrgb&h=650&w=940", "small": "https://images.pexels.com/photos/60597/dahlia-red-blossom-bloom-60597.jpeg?auto=compress&cs=tinysrgb&h=130", "square": "https://images.pexels.com/photos/60597/dahlia-red-blossom-bloom-60597.jpeg?auto=compress&cs=tinysrgb&dpr=1&fit=crop&h=1200&w=1200", "large2x": "https://images.pexels.com/photos/60597/dahlia-red-blossom-bloom-60597.jpeg?auto=compress&cs=tinysrgb&dpr=2&h=650&w=940", "portrait": "https://images.pexels.com/photos/60597/dahlia-red-blossom-bloom-60597.jpeg?auto=compress&cs=tinysrgb&fit=crop&h=1200&w=800", "original": "https://images.pexels.com/photos/60597/dahlia-red-blossom-bloom-60597.jpeg", "landscape": "https://images.pexels.com/photos/60597/dahlia-red-blossom-bloom-60597.jpeg?auto=compress&cs=tinysrgb&fit=crop&h=627&w=1200"}, "url": "https://www.pexels.com/photo/red-dahlia-flower-60597/", "photographer": "Pixabay", "photographer_url": "https://www.pexels.com/@pixabay", "height": 2736, "width": 3648, "id": 60597}, {"src": {"medium": "https://images.pexels.com/photos/54320/rose-roses-flowers-red-54320.jpeg?auto=compress&cs=tinysrgb&h=350", "tiny": "https://images.pexels.com/photos/54320/rose-roses-flowers-red-54320.jpeg?auto=compress&cs=tinysrgb&fit=crop&h=200&w=280", "large": "https://images.pexels.com/photos/54320/rose-roses-flowers-red-54320.jpeg?auto=compress&cs=tinysrgb&h=650&w=940", "small": "https://images.pexels.com/photos/54320/rose-roses-flowers-red-54320.jpeg?auto=compress&cs=tinysrgb&h=130", "square": "https://images.pexels.com/photos/54320/rose-roses-flowers-red-54320.jpeg?auto=compress&cs=tinysrgb&dpr=1&fit=crop&h=1200&w=1200", "large2x": "https://images.pexels.com/photos/54320/rose-roses-flowers-red-54320.jpeg?auto=compress&cs=tinysrgb&dpr=2&h=650&w=940", "portrait": "https://images.pexels.com/photos/54320/rose-roses-flowers-red-54320.jpeg?auto=compress&cs=tinysrgb&fit=crop&h=1200&w=800", "original": "https://images.pexels.com/photos/54320/rose-roses-flowers-red-54320.jpeg", "landscape": "https://images.pexels.com/photos/54320/rose-roses-flowers-red-54320.jpeg?auto=compress&cs=tinysrgb&fit=crop&h=627&w=1200"}, "url": "https://www.pexels.com/photo/red-flowers-roses-rose-54320/", "photographer": "Pixabay", "photographer_url": "https://www.pexels.com/@pixabay", "height": 2048, "width": 3072, "id": 54320}, {"src": {"medium": "https://images.pexels.com/photos/289590/pexels-photo-289590.jpeg?auto=compress&cs=tinysrgb&h=350", "tiny": "https://images.pexels.com/photos/289590/pexels-photo-289590.jpeg?auto=compress&cs=tinysrgb&fit=crop&h=200&w=280", "large": "https://images.pexels.com/photos/289590/pexels-photo-289590.jpeg?auto=compress&cs=tinysrgb&h=650&w=940", "small": "https://images.pexels.com/photos/289590/pexels-photo-289590.jpeg?auto=compress&cs=tinysrgb&h=130", "square": "https://images.pexels.com/photos/289590/pexels-photo-289590.jpeg?auto=compress&cs=tinysrgb&dpr=1&fit=crop&h=1200&w=1200", "large2x": "https://images.pexels.com/photos/289590/pexels-photo-289590.jpeg?auto=compress&cs=tinysrgb&dpr=2&h=650&w=940", "portrait": "https://images.pexels.com/photos/289590/pexels-photo-289590.jpeg?auto=compress&cs=tinysrgb&fit=crop&h=1200&w=800", "original": "https://images.pexels.com/photos/289590/pexels-photo-289590.jpeg", "landscape": "https://images.pexels.com/photos/289590/pexels-photo-289590.jpeg?auto=compress&cs=tinysrgb&fit=crop&h=627&w=1200"}, "url": "https://www.pexels.com/photo/background-beautiful-black-bloom-289590/", "photographer": "Pixabay", "photographer_url": "https://www.pexels.com/@pixabay", "height": 2304, "width": 3456, "id": 289590}, {"src": {"medium": "https://images.pexels.com/photos/207962/pexels-photo-207962.jpeg?auto=compress&cs=tinysrgb&h=350", "tiny": "https://images.pexels.com/photos/207962/pexels-photo-207962.jpeg?auto=compress&cs=tinysrgb&fit=crop&h=200&w=280", "large": "https://images.pexels.com/photos/207962/pexels-photo-207962.jpeg?auto=compress&cs=tinysrgb&h=650&w=940", "small": "https://images.pexels.com/photos/207962/pexels-photo-207962.jpeg?auto=compress&cs=tinysrgb&h=130", "square": "https://images.pexels.com/photos/207962/pexels-photo-207962.jpeg?auto=compress&cs=tinysrgb&dpr=1&fit=crop&h=1200&w=1200", "large2x": "https://images.pexels.com/photos/207962/pexels-photo-207962.jpeg?auto=compress&cs=tinysrgb&dpr=2&h=650&w=940", "portrait": "https://images.pexels.com/photos/207962/pexels-photo-207962.jpeg?auto=compress&cs=tinysrgb&fit=crop&h=1200&w=800", "original": "https://images.pexels.com/photos/207962/pexels-photo-207962.jpeg", "landscape": "https://images.pexels.com/photos/207962/pexels-photo-207962.jpeg?auto=compress&cs=tinysrgb&fit=crop&h=627&w=1200"}, "url": "https://www.pexels.com/photo/artistic-blossom-bright-clouds-207962/", "photographer": "Pixabay", "photographer_url": "https://www.pexels.com/@pixabay", "height": 1200, "width": 1920, "id": 207962}, {"src": {"medium": "https://images.pexels.com/photos/658687/pexels-photo-658687.jpeg?auto=compress&cs=tinysrgb&h=350", "tiny": "https://images.pexels.com/photos/658687/pexels-photo-658687.jpeg?auto=compress&cs=tinysrgb&fit=crop&h=200&w=280", "large": "https://images.pexels.com/photos/658687/pexels-photo-658687.jpeg?auto=compress&cs=tinysrgb&h=650&w=940", "small": "https://images.pexels.com/photos/658687/pexels-photo-658687.jpeg?auto=compress&cs=tinysrgb&h=130", "square": "https://images.pexels.com/photos/658687/pexels-photo-658687.jpeg?auto=compress&cs=tinysrgb&dpr=1&fit=crop&h=1200&w=1200", "large2x": "https://images.pexels.com/photos/658687/pexels-photo-658687.jpeg?auto=compress&cs=tinysrgb&dpr=2&h=650&w=940", "portrait": "https://images.pexels.com/photos/658687/pexels-photo-658687.jpeg?auto=compress&cs=tinysrgb&fit=crop&h=1200&w=800", "original": "https://images.pexels.com/photos/658687/pexels-photo-658687.jpeg", "landscape": "https://images.pexels.com/photos/658687/pexels-photo-658687.jpeg?auto=compress&cs=tinysrgb&fit=crop&h=627&w=1200"}, "url": "https://www.pexels.com/photo/red-rose-flower-658687/", "photographer": "Cindy Gustafson", "photographer_url": "https://www.pexels.com/@cindyg", "height": 1897, "width": 2371, "id": 658687}], "per_page": 5, "page": 2}, "headers": {"Expect-CT": "max-age=604800, report-uri=\"https://report-uri.cloudflare.com/cdn-cgi/beacon/expect-ct\"", "X-Ratelimit-Remaining": "19931", "X-Ratelimit-Limit": "20000", "Transfer-Encoding": "chunked", "Vary": "Origin", "X-Request-Id": "4bff3ad2-9053-4885-a551-945e9babe6ad", "Server": "cloudflare", "Connection": "keep-alive", "Etag": "W/\"db235f2817d8541a77e3f4751a4d2817\"", "Cache-Control": "max-age=0, private, must-revalidate", "Date": "Mon, 21 Jan 2019 03:45:40 GMT", "X-Frame-Options": "ALLOWALL", "X-Runtime": "0.029459", "Content-Type": "application/json; charset=utf-8", "CF-RAY": "49c6ca118e146e4a-SJC", "X-Ratelimit-Reset": "1550559445"}, "last_update": "Sun Jan 20 19:45:39 2019", "_url": "/search?per_page=5&page=2&query=red+flower", "status_code": 200}